[
    // this file is saved as json5, but its actually format is not that.
    { "key": "alt+a", "command": "workbench.action.toggleActivityBarVisibility" },
    { "key": "alt+z", "command": "workbench.action.toggleTabsVisibility" },

    { "key": "alt+b alt+b", "command": "workbench.action.toggleSidebarVisibility" },
    { "key": "alt+n",       "command": "workbench.action.nextSideBarView" },
    { "key": "alt+p",       "command": "workbench.action.previousSideBarView" },
    { "key": "alt+b alt+d", "command": "workbench.view.debug" },
    { "key": "alt+b alt+e", "command": "workbench.view.explorer" },
    { "key": "alt+b alt+f", "command": "workbench.view.search" },
    { "key": "alt+b alt+g", "command": "workbench.view.scm" },
    { "key": "alt+b alt+l", "command": "workbench.view.extension.gitlens" },
    { "key": "alt+b alt+t", "command": "workbench.view.extension.todo" },
    { "key": "alt+b alt+x", "command": "workbench.view.extensions" },

    {
        "key": "ctrl+shift+l",
        "command": "workbench.action.editor.changeLanguageMode",
        "when": "editorTextFocus"
    },
]